{
    "cs9": {
        "common": [
            "accountsservice-0.6.55-9.el9",
            "accountsservice-libs-0.6.55-9.el9",
            "acl-2.3.1-3.el9",
            "adwaita-cursor-theme-40.1.1-2.el9",
            "adwaita-icon-theme-40.1.1-2.el9",
            "alsa-lib-1.2.5.1-2.el9",
            "alternatives-1.20-2.el9",
            "at-spi2-atk-2.38.0-4.el9",
            "at-spi2-core-2.40.3-1.el9",
            "atk-2.36.0-5.el9",
            "attr-2.5.1-3.el9",
            "audit-3.0.5-5.el9",
            "audit-libs-3.0.5-5.el9",
            "augeas-libs-1.12.1-0.2.git18558bb.el9",
            "avahi-glib-0.8-11.el9",
            "avahi-libs-0.8-11.el9",
            "basesystem-11-13.el9",
            "bash-5.1.8-4.el9",
            "binutils-2.35.2-9.el9",
            "binutils-gold-2.35.2-9.el9",
            "bluez-5.56-6.el9",
            "bluez-libs-5.56-6.el9",
            "bluez-obexd-5.56-6.el9",
            "bolt-0.9.1-4.el9",
            "boost-iostreams-1.75.0-6.el9",
            "boost-system-1.75.0-6.el9",
            "boost-thread-1.75.0-6.el9",
            "bubblewrap-0.4.1-6.el9",
            "bzip2-1.0.8-8.el9",
            "bzip2-libs-1.0.8-8.el9",
            "ca-certificates-2020.2.50-93.el9",
            "cairo-1.17.4-5.el9",
            "cairo-gobject-1.17.4-5.el9",
            "centos-gpg-keys-9.0-4.el9",
            "centos-logos-90.4-1.el9",
            "centos-stream-release-9.0-4.el9",
            "centos-stream-repos-9.0-4.el9",
            "checkpolicy-3.3-1.el9",
            "cheese-libs-3.38.0-6.el9",
            "chrony-4.1-3.el9",
            "clutter-1.26.4-6.el9",
            "clutter-gst3-3.0.27-7.el9",
            "clutter-gtk-1.8.4-12.el9",
            "cogl-1.22.8-5.el9",
            "color-filesystem-1-28.el9",
            "colord-1.4.5-4.el9",
            "colord-gtk-0.2.0-7.el9",
            "colord-libs-1.4.5-4.el9",
            "conmon-2.0.30-3.el9",
            "container-selinux-2.171.0-1.el9",
            "containernetworking-plugins-1.0.1-3.el9",
            "containers-common-1-8.el9",
            "coreutils-8.32-31.el9",
            "coreutils-common-8.32-31.el9",
            "cpio-2.13-16.el9",
            "cracklib-2.9.6-27.el9",
            "cracklib-dicts-2.9.6-27.el9",
            "criu-3.15-12.el9",
            "criu-libs-3.15-12.el9",
            "crun-1.3-1.el9",
            "crypto-policies-20210922-1.git6fb269b.el9",
            "crypto-policies-scripts-20210922-1.git6fb269b.el9",
            "cryptsetup-2.4.1-1.el9",
            "cryptsetup-libs-2.4.1-1.el9",
            "cups-libs-2.3.3op2-10.el9",
            "cups-pk-helper-0.2.6-14.el9",
            "curl-7.76.1-14.el9",
            "cyrus-sasl-2.1.27-17.el9",
            "cyrus-sasl-gssapi-2.1.27-17.el9",
            "cyrus-sasl-lib-2.1.27-17.el9",
            "dbus-1.12.20-5.el9",
            "dbus-broker-28-5.el9",
            "dbus-common-1.12.20-5.el9",
            "dbus-daemon-1.12.20-5.el9",
            "dbus-glib-0.110-13.el9",
            "dbus-libs-1.12.20-5.el9",
            "dbus-tools-1.12.20-5.el9",
            "dconf-0.40.0-6.el9",
            "dejavu-sans-fonts-2.37-18.el9",
            "desktop-file-utils-0.26-5.el9",
            "device-mapper-1.02.181-1.el9",
            "device-mapper-event-1.02.181-1.el9",
            "device-mapper-event-libs-1.02.181-1.el9",
            "device-mapper-libs-1.02.181-1.el9",
            "device-mapper-multipath-0.8.7-2.el9",
            "device-mapper-multipath-libs-0.8.7-2.el9",
            "device-mapper-persistent-data-0.9.0-11.el9",
            "dhcp-client-4.4.2-15.b1.el9",
            "dhcp-common-4.4.2-15.b1.el9",
            "dhcp-server-4.4.2-15.b1.el9",
            "diffutils-3.7-12.el9",
            "dnf-4.10.0-1.el9",
            "dnf-data-4.10.0-1.el9",
            "dnf-plugins-core-4.0.24-1.el9",
            "dosfstools-4.2-3.el9",
            "dracut-055-10.git20210824.el9",
            "dracut-config-generic-055-10.git20210824.el9",
            "e2fsprogs-1.46.2-2.el9",
            "e2fsprogs-libs-1.46.2-2.el9",
            "efi-filesystem-4-9.el9",
            "efibootmgr-16-12.el9",
            "efivar-libs-37-17.el9",
            "elfutils-debuginfod-client-0.185-5.el9",
            "elfutils-default-yama-scope-0.185-5.el9",
            "elfutils-libelf-0.185-5.el9",
            "elfutils-libs-0.185-5.el9",
            "emacs-filesystem-27.1-3.el9",
            "enchant2-2.2.15-6.el9",
            "evolution-data-server-3.40.4-2.el9",
            "evolution-data-server-langpacks-3.40.4-2.el9",
            "expat-2.2.10-4.el9",
            "fdk-aac-free-2.0.0-8.el9",
            "file-5.39-8.el9",
            "file-libs-5.39-8.el9",
            "filesystem-3.16-2.el9",
            "findutils-4.8.0-5.el9",
            "firewalld-1.0.0-2.el9",
            "firewalld-filesystem-1.0.0-2.el9",
            "flac-libs-1.3.3-9.el9",
            "flatpak-1.10.5-1.el9",
            "flatpak-selinux-1.10.5-1.el9",
            "flatpak-session-helper-1.10.5-1.el9",
            "fontconfig-2.13.93-8.el9",
            "fonts-filesystem-2.0.5-7.el9.1",
            "freetype-2.10.4-6.el9",
            "fribidi-1.0.10-6.el9.1",
            "fuse-2.9.9-14.el9",
            "fuse-common-3.10.2-3.el9",
            "fuse-libs-2.9.9-14.el9",
            "fuse-overlayfs-1.7.1-3.el9",
            "fuse3-3.10.2-3.el9",
            "fuse3-libs-3.10.2-3.el9",
            "fwupd-1.5.9-3.el9",
            "gawk-5.1.0-5.el9",
            "gcr-3.40.0-3.el9",
            "gcr-base-3.40.0-3.el9",
            "gdbm-libs-1.19-4.el9",
            "gdisk-1.0.7-5.el9",
            "gdk-pixbuf2-2.42.6-2.el9",
            "gdk-pixbuf2-modules-2.42.6-2.el9",
            "gdm-40.1-11.el9",
            "geoclue2-2.5.7-4.el9",
            "geoclue2-libs-2.5.7-4.el9",
            "geocode-glib-3.26.2-5.el9",
            "gettext-0.21-7.el9",
            "gettext-libs-0.21-7.el9",
            "gjs-1.68.4-1.el9",
            "glib-networking-2.68.2-1.el9",
            "glib2-2.68.4-2.el9",
            "glibc-2.34-8.el9",
            "glibc-common-2.34-8.el9",
            "glibc-gconv-extra-2.34-8.el9",
            "glibc-langpack-en-2.34-8.el9",
            "glx-utils-8.4.0-12.20210504git0f9e7d9.el9",
            "gmp-6.2.0-10.el9",
            "gnome-autoar-0.4.0-1.el9",
            "gnome-bluetooth-3.34.5-3.el9",
            "gnome-bluetooth-libs-3.34.5-3.el9",
            "gnome-control-center-40.0-16.el9",
            "gnome-control-center-filesystem-40.0-16.el9",
            "gnome-desktop3-40.4-1.el9",
            "gnome-keyring-40.0-3.el9",
            "gnome-keyring-pam-40.0-3.el9",
            "gnome-online-accounts-3.40.0-2.el9",
            "gnome-session-40.1.1-5.el9",
            "gnome-session-wayland-session-40.1.1-5.el9",
            "gnome-session-xsession-40.1.1-5.el9",
            "gnome-settings-daemon-40.0.1-5.el9",
            "gnome-shell-40.6-1.el9",
            "gnome-terminal-3.40.1-2.el9",
            "gnupg2-2.3.1-3.el9",
            "gnutls-3.7.2-7.el9",
            "gnutls-dane-3.7.2-7.el9",
            "gnutls-utils-3.7.2-7.el9",
            "gobject-introspection-1.68.0-10.el9",
            "gpgme-1.15.1-5.el9",
            "graphene-1.10.6-2.el9",
            "graphite2-1.3.14-9.el9",
            "greenboot-0.11-5.el9",
            "greenboot-grub2-0.11-5.el9",
            "greenboot-reboot-0.11-5.el9",
            "greenboot-rpm-ostree-grub2-0.11-5.el9",
            "greenboot-status-0.11-5.el9",
            "grep-3.6-5.el9",
            "groff-base-1.22.4-10.el9",
            "grub2-common-2.06-2.el9",
            "grub2-tools-2.06-2.el9",
            "grub2-tools-extra-2.06-2.el9",
            "grub2-tools-minimal-2.06-2.el9",
            "gsettings-desktop-schemas-40.0-4.el9",
            "gsm-1.0.19-6.el9",
            "gsound-1.0.2-15.el9",
            "gssproxy-0.8.4-4.el9",
            "gstreamer1-1.18.4-4.el9",
            "gstreamer1-plugins-bad-free-1.18.4-5.el9",
            "gstreamer1-plugins-base-1.18.4-4.el9",
            "gstreamer1-plugins-good-1.18.4-5.el9",
            "gtk-update-icon-cache-3.24.30-3.el9",
            "gtk3-3.24.30-3.el9",
            "gtk4-4.2.1-2.el9",
            "gzip-1.10-8.el9",
            "harfbuzz-2.7.4-5.el9",
            "harfbuzz-icu-2.7.4-5.el9",
            "hexedit-1.5-3.el9",
            "hicolor-icon-theme-0.17-12.el9",
            "highcontrast-icon-theme-3.28-14.el9",
            "hivex-libs-1.3.21-3.el9",
            "hostname-3.23-6.el9",
            "hunspell-1.7.0-11.el9",
            "hunspell-en-US-0.20140811.1-20.el9",
            "hunspell-filesystem-1.7.0-11.el9",
            "hwdata-0.348-9.1.el9",
            "hyphen-2.8.8-17.el9",
            "ibus-1.5.25-2.el9",
            "ibus-gtk3-1.5.25-2.el9",
            "ibus-libs-1.5.25-2.el9",
            "ibus-setup-1.5.25-2.el9",
            "iio-sensor-proxy-3.3-1.el9",
            "ima-evm-utils-1.3.2-7.el9",
            "inih-49-5.el9",
            "initscripts-service-10.11.1-1.el9",
            "ipcalc-1.0.0-5.el9",
            "iproute-5.13.0-5.el9",
            "iproute-tc-5.13.0-5.el9",
            "ipset-7.11-5.el9",
            "ipset-libs-7.11-5.el9",
            "iptables-libs-1.8.7-26.el9",
            "iptables-nft-1.8.7-26.el9",
            "iputils-20210202-7.el9",
            "iso-codes-4.6.0-3.el9",
            "isomd5sum-1.2.3-14.el9",
            "jansson-2.13.1-4.el9",
            "jasper-libs-2.0.28-3.el9",
            "jbigkit-libs-2.1-23.el9",
            "jitterentropy-3.0.2-3.git.409828cf.el9",
            "json-c-0.14-11.el9",
            "json-glib-1.6.6-1.el9",
            "kbd-2.4.0-7.el9",
            "kbd-misc-2.4.0-7.el9",
            "kernel-5.14.0-41.el9",
            "kernel-core-5.14.0-41.el9",
            "kernel-modules-5.14.0-41.el9",
            "kernel-tools-5.14.0-41.el9",
            "kernel-tools-libs-5.14.0-41.el9",
            "keyutils-1.6.1-4.el9",
            "keyutils-libs-1.6.1-4.el9",
            "kmod-28-7.el9",
            "kmod-libs-28-7.el9",
            "kpartx-0.8.7-2.el9",
            "krb5-libs-1.19.1-12.el9",
            "lame-libs-3.100-12.el9",
            "langpacks-core-en-3.0-16.el9",
            "langpacks-core-font-en-3.0-16.el9",
            "langpacks-en-3.0-16.el9",
            "lcms2-2.12-3.el9",
            "less-575-4.el9",
            "libacl-2.3.1-3.el9",
            "libaio-0.3.111-13.el9",
            "libappstream-glib-0.7.18-4.el9",
            "libarchive-3.5.2-1.el9",
            "libassuan-2.5.5-3.el9",
            "libasyncns-0.8-22.el9",
            "libattr-2.5.1-3.el9",
            "libbasicobjects-0.1.1-51.el9",
            "libblkid-2.37.2-1.el9",
            "libbpf-0.5.0-3.el9",
            "libbrotli-1.0.9-6.el9",
            "libburn-1.5.4-3.el9",
            "libcanberra-0.30-26.el9",
            "libcanberra-gtk3-0.30-26.el9",
            "libcap-2.48-7.el9",
            "libcap-ng-0.8.2-6.el9",
            "libcbor-0.7.0-5.el9",
            "libcollection-0.7.0-51.el9",
            "libcom_err-1.46.2-2.el9",
            "libcomps-0.1.18-1.el9",
            "libconfig-1.7.2-9.el9",
            "libcurl-7.76.1-14.el9",
            "libdatrie-0.2.13-4.el9",
            "libdb-5.3.28-51.el9",
            "libdnf-0.65.0-1.el9",
            "libdrm-2.4.107-3.el9",
            "libdvdnav-6.1.0-4.el9",
            "libdvdread-6.1.1-4.el9",
            "libeconf-0.4.1-2.el9",
            "libedit-3.1-37.20210216cvs.el9",
            "libepoxy-1.5.5-4.el9",
            "libestr-0.1.11-3.el9",
            "libev-4.33-5.el9",
            "libevdev-1.11.0-3.el9",
            "libevent-2.1.12-6.el9",
            "libfastjson-0.99.9-3.el9",
            "libfdisk-2.37.2-1.el9",
            "libffi-3.4.2-7.el9",
            "libfido2-1.6.0-7.el9",
            "libfontenc-1.1.3-17.el9",
            "libgcab1-1.4-6.el9",
            "libgcc-11.2.1-6.el9",
            "libgcrypt-1.9.3-5.el9",
            "libgdata-0.18.1-4.el9",
            "libglvnd-1.3.2-5.el9",
            "libglvnd-egl-1.3.2-5.el9",
            "libglvnd-gles-1.3.2-5.el9",
            "libglvnd-glx-1.3.2-5.el9",
            "libgnomekbd-3.26.1-7.el9",
            "libgomp-11.2.1-6.el9",
            "libgpg-error-1.42-4.el9",
            "libgtop2-2.40.0-8.el9",
            "libgudev-237-1.el9",
            "libguestfs-1.46.0-4.el9",
            "libguestfs-appliance-1.46.0-4.el9",
            "libgusb-0.3.6-3.el9",
            "libgweather-40.0-3.el9",
            "libhandy-1.2.3-1.el9",
            "libibverbs-37.1-1.el9",
            "libical-3.0.11-1.el9",
            "libical-glib-3.0.11-1.el9",
            "libICE-1.0.10-8.el9",
            "libicu-67.1-9.el9",
            "libidn2-2.3.0-7.el9",
            "libini_config-1.3.1-51.el9",
            "libinput-1.19.2-1.el9",
            "libisoburn-1.5.4-3.el9",
            "libisofs-1.5.4-3.el9",
            "libjcat-0.1.6-3.el9",
            "libjpeg-turbo-2.0.90-5.el9",
            "libkcapi-1.3.1-3.el9",
            "libkcapi-hmaccalc-1.3.1-3.el9",
            "libksba-1.5.1-4.el9",
            "libldac-2.0.2.3-10.el9",
            "libldb-2.3.0-6.el9",
            "libmng-2.0.3-15.el9",
            "libmnl-1.0.4-15.el9",
            "libmodulemd-2.13.0-2.el9",
            "libmount-2.37.2-1.el9",
            "libndp-1.8-4.el9",
            "libnet-1.2-6.el9",
            "libnetfilter_conntrack-1.0.8-4.el9",
            "libnfnetlink-1.0.1-21.el9",
            "libnfsidmap-2.5.4-5.el9",
            "libnftnl-1.1.9-4.el9",
            "libnghttp2-1.43.0-5.el9",
            "libnl3-3.5.0-10.el9",
            "libnma-1.8.32-1.el9",
            "libnotify-0.7.9-6.el9",
            "libogg-1.3.4-6.el9",
            "libpath_utils-0.2.1-51.el9",
            "libpcap-1.10.0-4.el9",
            "libpciaccess-0.16-6.el9",
            "libpipeline-1.5.3-4.el9",
            "libpkgconf-1.7.3-9.el9",
            "libpng-1.6.37-12.el9",
            "libpsl-0.21.1-5.el9",
            "libpwquality-1.4.4-8.el9",
            "librados2-16.2.4-5.el9",
            "librbd1-16.2.4-5.el9",
            "librdmacm-37.1-1.el9",
            "libref_array-0.1.5-51.el9",
            "librepo-1.14.2-1.el9",
            "libreport-filesystem-2.15.2-2.el9",
            "librsvg2-2.50.7-1.el9",
            "libsbc-1.4-9.el9",
            "libseccomp-2.5.2-2.el9",
            "libsecret-0.20.4-4.el9",
            "libselinux-3.3-1.el9",
            "libselinux-utils-3.3-1.el9",
            "libsemanage-3.3-1.el9",
            "libsepol-3.3-2.el9",
            "libshout-2.4.3-7.el9",
            "libsigsegv-2.13-4.el9",
            "libslirp-4.4.0-4.el9",
            "libSM-1.2.3-10.el9",
            "libsmartcols-2.37.2-1.el9",
            "libsmbclient-4.14.5-103.el9",
            "libsndfile-1.0.31-6.el9",
            "libsolv-0.7.20-2.el9",
            "libsoup-2.72.0-8.el9",
            "libsrtp-2.3.0-7.el9",
            "libss-1.46.2-2.el9",
            "libssh-0.9.6-3.el9",
            "libssh-config-0.9.6-3.el9",
            "libstdc++-11.2.1-6.el9",
            "libstemmer-0-18.585svn.el9",
            "libtalloc-2.3.2-5.el9",
            "libtasn1-4.16.0-7.el9",
            "libtdb-1.4.3-10.el9",
            "libtevent-0.11.0-1.el9",
            "libthai-0.1.28-8.el9",
            "libtheora-1.1.1-31.el9",
            "libtiff-4.2.0-3.el9",
            "libtirpc-1.3.2-1.el9",
            "libtool-ltdl-2.4.6-44.el9",
            "libtpms-0.8.2-0.20210301git729fc6a4ca.el9.7",
            "libudisks2-2.9.4-2.el9",
            "libunistring-0.9.10-15.el9",
            "libusbx-1.0.24-4.el9",
            "libuser-0.63-7.el9",
            "libutempter-1.2.1-6.el9",
            "libuuid-2.37.2-1.el9",
            "libv4l-1.20.0-5.el9",
            "libverto-0.3.2-3.el9",
            "libverto-libev-0.3.2-3.el9",
            "libvirt-client-7.9.0-1.el9",
            "libvirt-daemon-7.9.0-1.el9",
            "libvirt-daemon-driver-qemu-7.9.0-1.el9",
            "libvirt-daemon-driver-secret-7.9.0-1.el9",
            "libvirt-daemon-driver-storage-core-7.9.0-1.el9",
            "libvirt-libs-7.9.0-1.el9",
            "libvisual-0.4.0-34.el9",
            "libvorbis-1.3.7-5.el9",
            "libvpx-1.9.0-5.el9",
            "libwacom-1.11-2.el9",
            "libwacom-data-1.11-2.el9",
            "libwayland-client-1.19.0-4.el9",
            "libwayland-cursor-1.19.0-4.el9",
            "libwayland-egl-1.19.0-4.el9",
            "libwayland-server-1.19.0-4.el9",
            "libwbclient-4.14.5-103.el9",
            "libwebp-1.2.0-3.el9",
            "libwpe-1.10.0-3.el9",
            "libX11-1.7.0-7.el9",
            "libX11-common-1.7.0-7.el9",
            "libX11-xcb-1.7.0-7.el9",
            "libXau-1.0.9-8.el9",
            "libxcb-1.13.1-9.el9",
            "libXcomposite-0.4.5-7.el9",
            "libxcrypt-4.4.18-3.el9",
            "libXcursor-1.2.0-7.el9",
            "libXdamage-1.1.5-7.el9",
            "libXdmcp-1.1.3-8.el9",
            "libXext-1.3.4-8.el9",
            "libXfixes-5.0.3-16.el9",
            "libXfont2-2.0.3-12.el9",
            "libXft-2.3.3-8.el9",
            "libXi-1.7.10-8.el9",
            "libXinerama-1.1.4-10.el9",
            "libxkbcommon-1.0.3-4.el9",
            "libxkbcommon-x11-1.0.3-4.el9",
            "libxkbfile-1.1.0-8.el9",
            "libxklavier-5.4-20.el9",
            "libxml2-2.9.12-4.el9",
            "libxmlb-0.3.3-1.el9",
            "libXmu-1.1.3-8.el9",
            "libXrandr-1.5.2-8.el9",
            "libXrender-0.9.10-16.el9",
            "libxshmfence-1.3-10.el9",
            "libxslt-1.1.34-7.el9",
            "libXt-1.2.0-6.el9",
            "libXtst-1.2.3-16.el9",
            "libXv-1.0.11-16.el9",
            "libXxf86vm-1.1.4-18.el9",
            "libyaml-0.2.5-7.el9",
            "libzstd-1.5.0-2.el9",
            "linux-firmware-20211027-123.el9",
            "linux-firmware-whence-20211027-123.el9",
            "llvm-libs-12.0.1-3.el9",
            "lmdb-libs-0.9.29-3.el9",
            "lorax-34.9.9-1.el9",
            "lorax-templates-generic-34.9.9-1.el9",
            "lorax-templates-rhel-9.0-28.el9",
            "low-memory-monitor-2.1-4.el9",
            "lsscsi-0.32-6.el9",
            "lua-libs-5.4.2-4.el9",
            "lvm2-2.03.14-1.el9",
            "lvm2-libs-2.03.14-1.el9",
            "lz4-libs-1.9.3-5.el9",
            "lzo-2.10-7.el9",
            "lzop-1.04-8.el9",
            "man-db-2.9.3-6.el9",
            "mdadm-4.2-rc2_1.el9.2",
            "memstrack-0.2.3-2.el9",
            "mesa-dri-drivers-21.1.5-2.el9",
            "mesa-filesystem-21.1.5-2.el9",
            "mesa-libEGL-21.1.5-2.el9",
            "mesa-libgbm-21.1.5-2.el9",
            "mesa-libGL-21.1.5-2.el9",
            "mesa-libglapi-21.1.5-2.el9",
            "mobile-broadband-provider-info-20210805-2.el9",
            "ModemManager-glib-1.18.2-1.el9",
            "mokutil-0.4.0-8.el9",
            "mpfr-4.1.0-7.el9",
            "mpg123-libs-1.26.2-5.el9",
            "mtdev-1.1.5-22.el9",
            "mutter-40.6-1.el9",
            "ncurses-base-6.2-8.20210508.el9",
            "ncurses-libs-6.2-8.20210508.el9",
            "nettle-3.7.3-2.el9",
            "NetworkManager-1.34.0-0.1.el9",
            "NetworkManager-libnm-1.34.0-0.1.el9",
            "nfs-utils-2.5.4-5.el9",
            "nftables-0.9.8-9.el9",
            "nmap-ncat-7.91-10.el9",
            "npth-1.6-8.el9",
            "nspr-4.32.0-4.el9",
            "nss-3.71.0-2.el9",
            "nss-altfiles-2.18.1-20.el9",
            "nss-softokn-3.71.0-2.el9",
            "nss-softokn-freebl-3.71.0-2.el9",
            "nss-sysinit-3.71.0-2.el9",
            "nss-util-3.71.0-2.el9",
            "numactl-libs-2.0.14-7.el9",
            "numad-0.5-36.20150602git.el9",
            "nvme-cli-1.14-3.el9",
            "openal-soft-1.19.1-16.el9",
            "openjpeg2-2.4.0-6.el9",
            "openldap-2.4.59-3.el9",
            "openssh-8.7p1-4.el9",
            "openssh-clients-8.7p1-4.el9",
            "openssh-server-8.7p1-4.el9",
            "openssl-3.0.1-1.el9",
            "openssl-libs-3.0.1-1.el9",
            "opus-1.3.1-10.el9",
            "orc-0.4.31-6.el9",
            "os-prober-1.77-9.el9",
            "ostree-2021.3-3.el9",
            "ostree-libs-2021.3-3.el9",
            "p11-kit-0.24.0-4.el9",
            "p11-kit-trust-0.24.0-4.el9",
            "pam-1.5.1-8.el9",
            "pango-1.48.7-2.el9",
            "parted-3.4-6.el9",
            "passwd-0.80-12.el9",
            "pbzip2-1.1.13-6.el9",
            "pcre-8.44-3.el9.3",
            "pcre2-10.37-3.el9.1",
            "pcre2-syntax-10.37-3.el9.1",
            "pcre2-utf16-10.37-3.el9.1",
            "pigz-2.5-4.el9",
            "pipewire-0.3.32-3.el9",
            "pipewire-gstreamer-0.3.32-3.el9",
            "pipewire-libs-0.3.32-3.el9",
            "pipewire-media-session-0.3.32-3.el9",
            "pipewire-pulseaudio-0.3.32-3.el9",
            "pixman-0.40.0-5.el9",
            "pkgconf-1.7.3-9.el9",
            "pkgconf-m4-1.7.3-9.el9",
            "pkgconf-pkg-config-1.7.3-9.el9",
            "plymouth-0.9.5-4.20210331git1ea1020.el9",
            "plymouth-core-libs-0.9.5-4.20210331git1ea1020.el9",
            "plymouth-scripts-0.9.5-4.20210331git1ea1020.el9",
            "podman-3.4.2-0.2.el9",
            "podman-catatonit-3.4.2-0.2.el9",
            "policycoreutils-3.3-1.el9",
            "policycoreutils-python-utils-3.3-1.el9",
            "polkit-0.117-7.el9",
            "polkit-libs-0.117-7.el9",
            "polkit-pkla-compat-0.1-21.el9",
            "popt-1.18-8.el9",
            "power-profiles-daemon-0.10.1-1.el9",
            "procps-ng-3.3.17-4.el9",
            "protobuf-c-1.3.3-9.el9",
            "psmisc-23.4-3.el9",
            "publicsuffix-list-dafsa-20210518-2.el9",
            "pulseaudio-libs-15.0-2.el9",
            "pulseaudio-libs-glib2-15.0-2.el9",
            "python-pip-wheel-21.2.3-3.el9",
            "python-setuptools-wheel-53.0.0-6.el9",
            "python3-3.9.8-1.el9",
            "python3-audit-3.0.5-5.el9",
            "python3-cairo-1.20.0-4.el9",
            "python3-chardet-4.0.0-3.el9",
            "python3-dateutil-2.8.1-6.el9",
            "python3-dbus-1.2.18-2.el9",
            "python3-dnf-4.10.0-1.el9",
            "python3-dnf-plugins-core-4.0.24-1.el9",
            "python3-firewall-1.0.0-2.el9",
            "python3-gobject-3.40.1-5.el9",
            "python3-gobject-base-3.40.1-5.el9",
            "python3-gpg-1.15.1-5.el9",
            "python3-hawkey-0.65.0-1.el9",
            "python3-idna-2.10-5.el9",
            "python3-iniparse-0.4-45.el9",
            "python3-kickstart-3.32.2-2.el9",
            "python3-libcomps-0.1.18-1.el9",
            "python3-libdnf-0.65.0-1.el9",
            "python3-librepo-1.14.2-1.el9",
            "python3-libs-3.9.8-1.el9",
            "python3-libselinux-3.3-1.el9",
            "python3-libsemanage-3.3-1.el9",
            "python3-mako-1.1.4-5.el9",
            "python3-markupsafe-1.1.1-12.el9",
            "python3-nftables-0.9.8-9.el9",
            "python3-policycoreutils-3.3-1.el9",
            "python3-pycdlib-1.11.0-5.el9",
            "python3-pysocks-1.7.1-10.el9",
            "python3-pyyaml-5.4.1-4.el9",
            "python3-requests-2.25.1-5.el9",
            "python3-rpm-4.16.1.3-7.el9",
            "python3-setools-4.4.0-3.el9",
            "python3-setuptools-53.0.0-6.el9",
            "python3-six-1.15.0-7.el9",
            "python3-urllib3-1.26.5-2.el9",
            "qemu-img-6.2.0-3.el9",
            "qemu-kvm-6.2.0-3.el9",
            "qemu-kvm-audio-pa-6.2.0-3.el9",
            "qemu-kvm-block-rbd-6.2.0-3.el9",
            "qemu-kvm-common-6.2.0-3.el9",
            "qemu-kvm-core-6.2.0-3.el9",
            "qemu-kvm-docs-6.2.0-3.el9",
            "qemu-kvm-tools-6.2.0-3.el9",
            "qemu-pr-helper-6.2.0-3.el9",
            "qemu-virtiofsd-6.2.0-3.el9",
            "qt5-qt3d-5.15.2-9.el9",
            "qt5-qtbase-5.15.2-27.el9",
            "qt5-qtbase-common-5.15.2-27.el9",
            "qt5-qtbase-gui-5.15.2-27.el9",
            "qt5-qtdeclarative-5.15.2-9.el9",
            "qt5-qtgraphicaleffects-5.15.2-6.el9",
            "qt5-qtimageformats-5.15.2-6.el9",
            "qt5-qtmultimedia-5.15.2-7.el9",
            "qt5-qtquickcontrols-5.15.2-6.el9",
            "qt5-qtquickcontrols2-5.15.2-6.el9",
            "qt5-qtsensors-5.15.2-7.el9",
            "qt5-qttools-5.15.2-10.el9",
            "qt5-qttools-common-5.15.2-10.el9",
            "qt5-qtwayland-5.15.2-12.el9",
            "qt5-qtx11extras-5.15.2-6.el9",
            "quota-4.06-6.el9",
            "quota-nls-4.06-6.el9",
            "readline-8.1-4.el9",
            "rest-0.8.1-11.el9",
            "rng-tools-6.13-6.git.d207e0b6.el9",
            "rootfiles-8.1-31.el9",
            "rpcbind-1.2.6-2.el9",
            "rpm-4.16.1.3-7.el9",
            "rpm-build-libs-4.16.1.3-7.el9",
            "rpm-libs-4.16.1.3-7.el9",
            "rpm-ostree-2021.6-2.el9",
            "rpm-ostree-libs-2021.6-2.el9",
            "rpm-plugin-selinux-4.16.1.3-7.el9",
            "rpm-sign-libs-4.16.1.3-7.el9",
            "rsyslog-8.2102.0-10.el9",
            "rtkit-0.11-28.el9",
            "runc-1.0.0-332.dev.gitbd013b6.el9",
            "samba-client-libs-4.14.5-103.el9",
            "samba-common-4.14.5-103.el9",
            "samba-common-libs-4.14.5-103.el9",
            "scrub-2.6.1-4.el9",
            "sed-4.8-9.el9",
            "selinux-policy-34.1.18-1.el9",
            "selinux-policy-targeted-34.1.18-1.el9",
            "setup-2.13.7-6.el9",
            "setxkbmap-1.3.2-5.el9",
            "shadow-utils-4.9-2.el9",
            "shared-mime-info-2.1-4.el9",
            "slirp4netns-1.1.8-3.el9",
            "snappy-1.1.8-8.el9",
            "sound-theme-freedesktop-0.8-17.el9",
            "soundtouch-2.1.1-8.el9",
            "speex-1.2.0-10.el9",
            "sqlite-libs-3.34.1-5.el9",
            "squashfs-tools-4.4-7.git1.el9",
            "startup-notification-0.12-23.el9",
            "sudo-1.9.5p2-7.el9",
            "supermin-5.2.1-4.el9",
            "switcheroo-control-2.4-4.el9",
            "swtpm-0.6.0-3.20210607gitea627b3.el9",
            "swtpm-libs-0.6.0-3.20210607gitea627b3.el9",
            "swtpm-tools-0.6.0-3.20210607gitea627b3.el9",
            "systemd-249-9.el9",
            "systemd-container-249-9.el9",
            "systemd-libs-249-9.el9",
            "systemd-pam-249-9.el9",
            "systemd-rpm-macros-249-9.el9",
            "systemd-udev-249-9.el9",
            "taglib-1.12-6.el9",
            "tar-1.34-3.el9",
            "tpm2-tss-3.0.3-6.el9",
            "twolame-libs-0.3.13-19.el9",
            "tzdata-2021e-1.el9",
            "unbound-libs-1.13.1-9.el9",
            "upower-0.99.11-11.el9",
            "userspace-rcu-0.12.1-6.el9",
            "util-linux-2.37.2-1.el9",
            "util-linux-core-2.37.2-1.el9",
            "vim-minimal-8.2.2637-8.el9",
            "vte-profile-0.64.2-2.el9",
            "vte291-0.64.2-2.el9",
            "vulkan-loader-1.2.182.0-2.el9",
            "wavpack-5.4.0-4.el9",
            "webkit2gtk3-2.34.1-1.el9",
            "webkit2gtk3-jsc-2.34.1-1.el9",
            "webrtc-audio-processing-0.3.1-8.el9",
            "which-2.21-27.el9",
            "woff2-1.0.2-14.el9",
            "wpebackend-fdo-1.10.0-2.el9",
            "xcb-util-0.4.0-19.el9",
            "xcb-util-image-0.4.0-19.el9",
            "xcb-util-keysyms-0.4.0-17.el9",
            "xcb-util-renderutil-0.3.9-20.el9",
            "xcb-util-wm-0.4.1-22.el9",
            "xdg-dbus-proxy-0.1.2-6.el9",
            "xdg-desktop-portal-1.8.1-6.el9",
            "xdg-desktop-portal-gtk-1.8.0-4.el9",
            "xdg-user-dirs-0.17-10.el9",
            "xdg-user-dirs-gtk-0.10-22.el9",
            "xfsprogs-5.12.0-4.el9",
            "xkbcomp-1.4.4-4.el9",
            "xkeyboard-config-2.33-2.el9",
            "xml-common-0.6.3-58.el9",
            "xorg-x11-drv-fbdev-0.5.0-10.el9",
            "xorg-x11-drv-libinput-1.0.1-3.el9",
            "xorg-x11-server-common-1.20.11-4.el9",
            "xorg-x11-server-utils-7.7-44.el9",
            "xorg-x11-server-Xorg-1.20.11-4.el9",
            "xorg-x11-server-Xwayland-21.1.1-6.el9",
            "xorg-x11-xauth-1.1-10.el9",
            "xorg-x11-xinit-1.4.0-11.el9",
            "xorriso-1.5.4-3.el9",
            "xz-5.2.5-7.el9",
            "xz-libs-5.2.5-7.el9",
            "xz-lzma-compat-5.2.5-7.el9",
            "yajl-2.1.0-20.el9",
            "yum-4.10.0-1.el9",
            "zenity-3.32.0-7.el9",
            "zlib-1.2.11-31.el9"
        ],
        "arch": {
            "x86_64": [
                "biosdevname-0.7.3-9.el9",
                "daxctl-libs-71.1-4.el9",
                "dmidecode-3.3-6.el9",
                "edk2-ovmf-20210527gite1999b264f1f-7.el9",
                "grub2-efi-ia32-2.06-2.el9",
                "grub2-efi-ia32-cdboot-2.06-2.el9",
                "grub2-efi-x64-2.06-2.el9",
                "grub2-efi-x64-cdboot-2.06-2.el9",
                "grub2-pc-2.06-2.el9",
                "grub2-pc-modules-2.06-2.el9",
                "grub2-tools-efi-2.06-2.el9",
                "ipxe-roms-qemu-20200823-7.git4bd064de.el9",
                "libpmem-1.10.1-1.el9",
                "libsmbios-2.4.3-4.el9",
                "mesa-vulkan-drivers-21.1.5-2.el9",
                "microcode_ctl-20210608-2.el9",
                "mtools-4.0.26-3.el9",
                "ndctl-libs-71.1-4.el9",
                "pciutils-libs-3.7.0-5.el9",
                "qemu-kvm-hw-usbredir-6.2.0-3.el9",
                "qemu-kvm-ui-opengl-6.2.0-3.el9",
                "seabios-bin-1.14.0-7.el9",
                "seavgabios-bin-1.14.0-7.el9",
                "shim-ia32-15-15.el8_2",
                "shim-x64-15-15.el8_2",
                "syslinux-6.04-0.19.el9",
                "syslinux-extlinux-6.04-0.19.el9",
                "syslinux-extlinux-nonlinux-6.04-0.19.el9",
                "syslinux-nonlinux-6.04-0.19.el9",
                "usbredir-0.8.0-9.el9"
            ],
            "aarch64": [
                "edk2-aarch64-20210527gite1999b264f1f-7.el9",
                "grub2-efi-aa64-2.06-2.el9",
                "grub2-efi-aa64-cdboot-2.06-2.el9",
                "libfdt-1.6.0-7.el9",
                "shim-aa64-15-15.el8_2"
            ]
        }
    }
}
